Num,ISBN,Code,Name,Author,Date,Page,Language,OpinionC,OpinionNb,Loan,Theme
0,None,FRL0,Contes et nouvelles – Tome 1,Guy de Maupassant,1875,1662,FR,0,0,Bourg-en-Bresse,None
1,2-07-010943-7,FRL0,Contes et nouvelles – Tome 2,Guy de Maupassant,1884,1766,FR,0,0,Bourg-en-Bresse,None
2,2-07-011079-6,FRL0,Oeuvres – Tome 1,Colette,1900,1686,FR,0,0,Bourg-en-Bresse,None
3,None,FRL0,Oeuvres complètes,Jean-Jacques Rousseau,1770,1969,FR,0,0,Bourg-en-Bresse,None
4,2-07-010549-0,FRL0,Oeuvres,Anton Tchekhov,1882,1506,FR,0,0,Bourg-en-Bresse,None
5,None,FRL0,Oeuvres complètes – Tome 1,Paul Éluard,1913,1663,FR,0,0,Bourg-en-Bresse,None
6,None,FRL0,Oeuvres complètes – Tome 2,Paul Éluard,1945,1505,FR,0,0,Bourg-en-Bresse,None
7,None,FRL0,L’idiot,Fiodor Mikhaïlovitch Dostoïevski,1869,1370,FR,0,0,Bourg-en-Bresse,None
8,None,FRL0,Oeuvres complètes,Hérodote|Thucydide,-600,1873,FR,0,0,Bourg-en-Bresse,None
9,None,FRL0,Oeuvres complètes,François Rabelais,1532,1033,FR,0,0,Bourg-en-Bresse,None
10,None,FRL0,Anna Karénine,Léon Tolstoï,1877,1630,FR,0,0,Bourg-en-Bresse,None
11,None,FRL0,Romans et Nouvelles – Tome 2,Stendhal,1839,1484,FR,0,0,Bourg-en-Bresse,None
12,None,FRL0,La Guerre et la Paix,Léon Tolstoï,1869,1657,FR,0,0,Bourg-en-Bresse,None
13,2-07-011675-1,FRL0,Romans – Tome 2,Georges Simenon,1948,1736,FR,0,0,Bourg-en-Bresse,None
14,2-07-011674-3,FRL0,Romans – Tome 1,Georges Simenon,1877,1493,FR,0,0,Bourg-en-Bresse,None
15,None,FRL0,Oeuvres complètes – Tome 2,Molière,1665,1056,FR,0,0,Bourg-en-Bresse,None
16,None,DOG694,L'encyclopédie - L'art de la charpenterie,Denis Diderot|Jean Le Rond D'Alembert,1772,0,FR,0,0,Bourg-en-Bresse,None
17,2-263-02532-4,DOH780,Le livre de la musique,Neil Ardley|Dave Arthur|Hugh Chapman|John Perry|Mary Clarke|Clement Crsip|Robert Cruden|Dave Gelly|Lionel Grigson|Susan Sturrock,1977,188,FR,0,0,Bourg-en-Bresse,None
18,2-221-08320-2,DOG620,Le livre mondial des inventions 1997,Valérie-Anne Giscard D'Estaing,1996,316,FR,0,0,Bourg-en-Bresse,None
19,2-221-09080-2,DOG620,Le livre mondial des inventions 2000,Valérie-Anne Giscard D'Estaing,1999,284,FR,0,0,Bourg-en-Bresse,None
20,2-7434-56-57-4,DOH720,Intérieurs de la côte,Angelika Taschen|Diane Dorrans Saeks,2005,303,FR,0,0,Bourg-en-Bresse,None
21,2-912074-10-X,DOG720,Il était une fois l'architecture,Col,2000,349,FR,0,0,Bourg-en-Bresse,None
22,2-7000-0314-4,DOF590,Faune d'afrique,Jiri Felix,1980,314,FR,0,0,Bourg-en-Bresse,None
23,None,DOH750,Delacroix,Arlette Calvet,0,0,FR,0,0,Bourg-en-Bresse,None
24,None,BCC0,Donald - premières années,None,0,202,FR,0,0,Bourg-en-Bresse,None
25,None,DOA030,Encyclopédie de la femme,Jean-Jacques Nathan|Claude Nathan|Raymond Basch,1950,302,FR,0,0,Bourg-en-Bresse,None
26,2-7003-0197-8,DRJ940,La civilisation de l'occident médiéval,Jacques Le Goff,1964,701,FR,0,0,Bourg-en-Bresse,None
27,978-2-7499-3845-5,FBD0,Je ne cours plus qu'après mes rêves,Bruno Combes,2019,395,FR,0,0,Bourg-en-Bresse,None
28,978-2-7324-7520-2,DOH790,Dans les coulisses de la Comédie-Française,Laétitia Cénac|Damien Roudeau,2016,239,FR,0,0,Bourg-en-Bresse,None
29,978-2-9160-6826-8,DOF940,Vinsobres,Jacques|Melen|Jean-François Meltz|René Treuil,2015,501,FR,0,0,Bourg-en-Bresse,None
30,978-2-9158-6737-4,DOF910,Cambodge,Sébastien Braquet,2004,143,FR,0,0,Bourg-en-Bresse,None
31,978-2-8307-0525-6,DOF910,Grèce,Simonetta Crescimbene,1999,125,FR,0,0,Bourg-en-Bresse,None
32,2-7441-0796-4,DOF910,Atlas encyclopédique mondial,Col,1997,734,FR,0,0,Bourg-en-Bresse,None
33,978-2-0920-8170-9,DOF910,Histoire du monde,Col,1994,761,FR,0,0,Bourg-en-Bresse,None
34,978-2-8422-1231-5,DOH730,Recyclé,Uta Donath|Eva Hauck|Claudia Huboi|Dorothée Von Rosenberg,2010,119,FR,0,0,Bourg-en-Bresse,None
35,963-8185-38-4,DOF910,National Parks in Hungary,Gyorgy Kaposcy,1993,151,GB,0,0,Bourg-en-Bresse,None
36,None,FRR0,Splendeurs et misères des courtisanes - Tome 1,Honoré De Balzac,1858,409,FR,0,0,Bourg-en-Bresse,None
37,None,FRR0,Splendeurs et misères des courtisanes - Tome 2,Honoré de Balzac,1858,395,FR,0,0,Bourg-en-Bresse,None
38,None,DRC220,Missel romain,Col,1570,576,FR|LA,0,0,Bourg-en-Bresse,None
39,None,DOF590,Scènes de la vie des insectes,Jean-Henri Fabre,1931,285,FR,0,0,Bourg-en-Bresse,None
40,None,FRR0,La souris verte,Robert Sabatier,1990,283,FR,0,0,Bourg-en-Bresse,None
41,None,FRR0,Les âmes mortes,Nicolas Gogol,1842,396,FR,0,0,Bourg-en-Bresse,None
42,2-7242-0469-7,FRR0,Les oiseaux se cachent pour mourir,Colleen Mc Cullough,1977,536,FR,0,0,Bourg-en-Bresse,None
43,None,FRR0,La reine Margot - Tome 2,Alexandre Dumas,1845,250,FR,0,0,Bourg-en-Bresse,None
44,None,FRR0,La porte étroite,André Gide,1909,290,FR,0,0,Bourg-en-Bresse,None
45,None,FRR0,Le bossu,Paéval,1858,599,FR,0,0,Bourg-en-Bresse,None
46,None,FRR0,La comédie humaine - Tome 1,Honoré De Balzac,1850,516,FR,0,0,Bourg-en-Bresse,None
47,None,FRR0,Le mas de cocagne,Nicole VIe Vidal,1966,255,FR,0,0,Bourg-en-Bresse,None
48,None,FRR0,Robinson Crusoé,Daniel De Foe,1719,650,FR,0,0,Bourg-en-Bresse,None
49,2-7242-3980,FRR0,La dame de Berlin,Dan Franck|Jean Vautrin,1987,654,FR,0,0,Bourg-en-Bresse,None
50,None,FRA0,L'Odysée - Tome 1,Homère,-800,278,FR,0,0,Bourg-en-Bresse,None
51,None,FRA0,L'Odysée - Tome 2,Homère,-800,283,FR,0,0,Bourg-en-Bresse,None
52,None,FRR0,Colline - Triomphe de la vie,Jean Giono,1929,300,FR,0,0,Bourg-en-Bresse,None
53,978-2-608-11236-1,DRC220,La sainte Bible,Col,1880,1294,FR,0,0,Bourg-en-Bresse,None
54,None,FRC0,Contes et légendes de la mer et des marins,Charles QUinel|Adhémar De Montgon,1942,247,FR,0,0,Bourg-en-Bresse,None
55,None,FRM0,Les aventures de Sinbad le marin,René Rizqallah Khawam,800,154,FR,0,0,Bourg-en-Bresse,None
56,2-7242-2489-2,FRR0,L'amant,Marguerite Duras,1984,111,FR,0,0,Bourg-en-Bresse,None
57,None,FRA0,De la nature - Tome 1,Lucrèce,-55,154,FR|LA,0,0,Bourg-en-Bresse,None
58,None,FRA0,De la nature - Tome 2,Lucrèce,-55,150,FR|LA,0,0,Bourg-en-Bresse,None
59,None,FRR0,Robinson Crusoë,Daniel De Foe,1719,190,FR,0,0,Bourg-en-Bresse,None
60,None,FRR0,Le jaguar,Loup Durand,1989,465,FR,0,0,Bourg-en-Bresse,None
61,None,FRR0,La tulipe noire,Alexandre Dumas,1850,285,FR,0,0,Bourg-en-Bresse,None
62,None,FRR0,Le hussard sur le toit,Jean Giono,1951,501,FR,0,0,Bourg-en-Bresse,None
63,None,FRA0,L'Odysée - Tome 2,Homère,-800,220,FR|GA,0,0,Bourg-en-Bresse,None
64,None,FRA0,L'Odysée - Tome 2,Homère,-800,199,FR|GA,0,0,Bourg-en-Bresse,None
65,None,FRA0,L'Odyssée - Tome 3,Homère,-800,195,FR|GA,0,0,Bourg-en-Bresse,None
66,None,FRR0,Le roman de la momie,Théophile Gautier,1857,281,FR,0,0,Bourg-en-Bresse,None
67,None,FRR0,Salambô,Gustave Flaubert,1862,311,FR,0,0,Bourg-en-Bresse,None
68,None,FRR0,Madame Bovary,Gustave Flaubert,1856,441,FR,0,0,Bourg-en-Bresse,None
69,None,FRA0,Les vies des douzes césars,Suétone,200,327,FR,0,0,Bourg-en-Bresse,None
70,None,FRA0,Les pensées,Marc-Aurèle,170,409,FR,0,0,Bourg-en-Bresse,None
71,978-2-298-02819-5,FRR0,Le nuit du renard,Mary Higgins Clark,1977,332,FR,0,0,Bourg-en-Bresse,None
72,None,FRR0,La voie royale,André Malraux,1930,248,FR,0,0,Bourg-en-Bresse,None
73,None,FRR0,Pécheurs d'Islande,Pierre Loti,1886,255,FR,0,0,Bourg-en-Bresse,None
74,None,FRR0,Ramuntcho,Pierre Loti,1887,251,FR,0,0,Bourg-en-Bresse,None
75,None,FRP0,Les fleurs du mal,Charles Baudelaire,1857,302,FR,0,0,Bourg-en-Bresse,None
76,None,FRR0,Eugénie Grandet,Honoré De Balzac,1833,251,FR,0,0,Bourg-en-Bresse,None
77,2-7242-1264-9,FRF0,Dune,Franck Herbert,1965,535,FR,0,0,Bourg-en-Bresse,None
78,None,FRR0,Bel-Ami,Guy De Maupassant,1885,344,FR,0,0,Bourg-en-Bresse,None
79,2-7242-2946-0,FRR0,Les hauts de Hurlevent,Emily Brontë,1847,377,FR,0,0,Bourg-en-Bresse,None
80,2-7242-2829-4,FRR0,Jane Eyre,Charlotte Brontë,1847,644,FR,0,0,Bourg-en-Bresse,None
81,None,FRR0,L'éducation sentimentale,Gustave Flaubert,1845,473,FR,0,0,Bourg-en-Bresse,None
82,2-7242-0047-0,FRR0,La vie devant soi,Emile Ajar,1975,270,FR,0,0,Bourg-en-Bresse,None
83,None,FRP0,Verlaine,France Igly,1959,251,FR,0,0,Bourg-en-Bresse,None
84,2-7242-2575-9,FRR0,Faut-il tuer les petits garçons qui ont les mains sur les hanches ?,San Antonio,1984,324,FR,0,0,Bourg-en-Bresse,None
85,None,FRR0,Germinal,Émile Zola,1885,573,FR,0,0,Bourg-en-Bresse,None
86,None,FRF0,L'écume des jours,Boris Vian,1946,249,FR,0,0,Bourg-en-Bresse,None
87,None,FRP0,Oeuvres poétiques,Paul Verlaine,1969,805,FR,0,0,Bourg-en-Bresse,None
88,None,FRR0,Les aventures de Tom Sawyer,Mark Twain,1876,189,FR,0,0,Bourg-en-Bresse,None
89,2-7242-6738-9,FRR0,Un long dimanche de fiançailles,Sébastien Japrisot,1991,271,FR,0,0,Bourg-en-Bresse,None
90,None,FRR0,Vipère au poing,Hervé Bazin,1948,256,FR,0,0,Bourg-en-Bresse,None
91,None,FRR0,Trois hommes dans un bateau,Jerome K. Jerome,1889,259,FR,0,0,Bourg-en-Bresse,None
92,None,FRR0,Les misérables,Victor Hugo,1862,251,FR,0,0,Bourg-en-Bresse,None
93,None,FRR0,Les beaux quartiers,Louis Aragon,1936,483,FR,0,0,Bourg-en-Bresse,None
94,None,FRR0,Le sang aux tempes,John Ross Mac Donald,1976,320,FR,0,0,Bourg-en-Bresse,None
95,2-7441-3417-1,FRR0,Hasard suivi de Angoli Mala,Jean-Marie Gustave Le Clézio,1999,290,FR,0,0,Bourg-en-Bresse,None
96,None,FRR0,Gargantua et Pantagruel,François Rabelais,1534,279,FR,0,0,Bourg-en-Bresse,None
97,None,FRF0,Histoires extraordinaires,Edgar Allan Poe,1856,249,FR,0,0,Bourg-en-Bresse,None
98,None,FRR0,Moby Dick,Herman Melville,1851,252,FR,0,0,Bourg-en-Bresse,None
99,None,FRF0,L'Île du docteur Moreau,Herbert George Wells,1896,258,FR,0,0,Bourg-en-Bresse,None
100,None,FRN0,Nouvelles,Prosper Mérimée,1870,319,FR,0,0,Bourg-en-Bresse,None
101,None,FRR0,La religieuse,Denis Diderot,1796,286,FR,0,0,Bourg-en-Bresse,None
102,2-7242-1061-1,FRR0,La mort saisit le vif,Henri Troyat,1942,248,FR,0,0,Bourg-en-Bresse,None
103,None,FRR0,Faux jour,Henri Troyat,1935,222,FR,0,0,Bourg-en-Bresse,None
104,None,FRR0,La tête sur les épaules,Henri Troyat,1951,254,FR,0,0,Bourg-en-Bresse,None
105,None,FRR0,Le rouge et le noir - Tome 1,Stendhal,1830,355,FR,0,0,Bourg-en-Bresse,None
106,None,FRR0,Ne pleure pas,Guy Lagorce,1976,204,FR,0,0,Bourg-en-Bresse,None
107,2-7242-2557-0,FRR0,La femme sacrée,Michel De Grèce,1984,468,FR,0,0,Bourg-en-Bresse,None
108,None,FRR0,La chèvre d'or,Paul Arène,1889,255,FR,0,0,Bourg-en-Bresse,None
109,2-261-01373-6,FRR0,La bicyclette bleue,Régine Desforges,1981,381,FR,0,0,Bourg-en-Bresse,None
110,None,BRD320,Mémoires de guerre - L'appel,Charles De Gaulle,1954,680,FR,0,0,Bourg-en-Bresse,None
111,None,BRD320,Mémoires de guerre - L'unité,Charles De Gaulle,1956,712,FR,0,0,Bourg-en-Bresse,None
112,None,BRD320,Mémoires de guerre - Le salut,Charles De Gaulle,1959,653,FR,0,0,Bourg-en-Bresse,None
113,9-782859-221096,FRF0,Cinq semaines en ballon,Jules Verne,1863,257,FR,0,0,Bourg-en-Bresse,None
114,None,FRF0,L'île mystérieuse - Les naufragés de l'air,Jules Verne,1875,250,FR,0,0,Bourg-en-Bresse,None
115,None,FRR0,Robinson Crusoe - Tome 1,Daniel De Foe,1719,290,FR,0,0,Bourg-en-Bresse,None
116,None,FRR0,Robinson Crusoe - Tome 2,Daniel De Foe,1719,322,FR,0,0,Bourg-en-Bresse,None
117,None,FRR0,Robinson Crusoe - Tome 3,Daniel De Foe,1719,289,FR,0,0,Bourg-en-Bresse,None
118,None,FRF0,La divine comédie - L'enfer,Dante Alighieri,1555,319,FR|IT,0,0,Bourg-en-Bresse,None
119,None,FRF0,La divine comédie - Le purgatoire,Dante Alighieri,1555,320,FR|IT,0,0,Bourg-en-Bresse,None
120,None,FRF0,La divine comédie - Le paradis,Dante Alighieri,1555,313,FR|IT,0,0,Bourg-en-Bresse,None
121,None,FRS0,Robinson Crusoé,Daniel De Foe,1719,362,FR,0,0,Bourg-en-Bresse,None
122,None,FRS0,Le second livre de la jungle,Rudyard Kipling,1895,233,FR,0,0,Bourg-en-Bresse,None
123,None,FRS0,Le livre de la jungle,Rudyard Kipling,1894,185,FR,0,0,Bourg-en-Bresse,None
124,None,FRS0,Vol de nuit,Antoine De Saint-Exupéry,1931,187,FR,0,0,Bourg-en-Bresse,None
125,None,FRS0,Terre des hommes,Antoine De Saint-Exupéry,1939,170,FR,0,0,Bourg-en-Bresse,None
126,None,FRS0,L'étranger,Albert Camus,1942,147,FR,0,0,Bourg-en-Bresse,None
127,None,FRS0,Le baron perché,Italo Calvino,1957,191,FR,0,0,Bourg-en-Bresse,None
128,None,FRS0,Le fils du loup,Jack London,1900,165,FR,0,0,Bourg-en-Bresse,None
129,None,FRS0,Kim,Rudyard Kipling,1901,380,FR,0,0,Bourg-en-Bresse,None
130,None,FRS0,Le portrait de Dorian Gray,Oscar Wilde,1890,253,FR,0,0,Bourg-en-Bresse,None
131,None,FRS0,Poil de carotte,Jules Renard,1894,161,FR,0,0,Bourg-en-Bresse,None
132,None,FRS0,L'enfant de la haute mer,Jules Supervielle,1931,123,FR,0,0,Bourg-en-Bresse,None
133,None,FRS0,L'île au trésor,Robert Louis Stevenson,1882,228,FR,0,0,Bourg-en-Bresse,None
134,None,FRS0,La guerre des mondes,Herbert George Wells,1898,225,FR,0,0,Bourg-en-Bresse,None
135,None,FRS0,L'enfant et la rivière,Henri Bosco,1945,159,FR,0,0,Bourg-en-Bresse,None
136,None,FRR0,Prométhée et Épiméthée,Carl Spitteler,1919,353,FR,0,0,Bourg-en-Bresse,None
137,None,FRR0,La lumière qui s'éteint,Rudyard Kipling,1907,280,FR,0,0,Bourg-en-Bresse,None
138,None,FRR0,Le crime de Sylvestre Bonnard,Anatole France,1921,237,FR,0,0,Bourg-en-Bresse,None
139,None,FRR0,Les trois mousquetaires - Tome 1,Alexandre Dumas,1844,460,FR,0,0,Bourg-en-Bresse,None
140,None,FRR0,Les trois mousquetaires - Tome 2,Alexandre Dumas,1844,441,FR,0,0,Bourg-en-Bresse,None
141,None,FRR0,Vingts ans après - Tome 1,Alexandre Dumas,1845,552,FR,0,0,Bourg-en-Bresse,None
142,None,FRR0,Vingts ans après - Tome 2,Alexandre Dumas,1845,497,FR,0,0,Bourg-en-Bresse,None
143,None,FRR0,L'eau des collines - Jean de Florette,Marcel Pagnol,1963,330,FR,0,0,Bourg-en-Bresse,None
144,None,FRR0,L'eau des collines - Manon des sources,Marcel Pagnol,1963,341,FR,0,0,Bourg-en-Bresse,None
145,None,FRR0,Souvenirs d'enfance - Le temps des amours,Marcel Pagnol,1977,282,FR,0,0,Bourg-en-Bresse,None
146,None,FRR0,Souvenirs d'enfance - La gloire de mon père,Marcel Pagnol,1957,243,FR,0,0,Bourg-en-Bresse,None
147,None,FRR0,Souvenirs d'enfance - Le château de ma mère,Marcel Pagnol,1957,252,FR,0,0,Bourg-en-Bresse,None
148,None,FRR0,Souvenirs d'enfance - Le temps des secrets,Marcel Pagnol,1960,310,FR,0,0,Bourg-en-Bresse,None
149,None,FRT0,Théatre complet - Tome 1,Molière,1673,471,FR,0,0,Bourg-en-Bresse,None
150,None,FRT0,Théatre complet - Tome 2,Molière,1673,471,FR,0,0,Bourg-en-Bresse,None
151,None,FRT0,Théatre complet - Tome 3,Molière,1673,421,FR,0,0,Bourg-en-Bresse,None
152,None,FRT0,Théatre complet - Tome 4,Molière,1673,472,FR,0,0,Bourg-en-Bresse,None
153,None,FRT0,Théatre complet - Tome 5,Molière,1673,429,FR,0,0,Bourg-en-Bresse,None
154,None,FRT0,Théatre complet - Tome 1,Racine,1699,355,FR,0,0,Bourg-en-Bresse,None
155,None,FRT0,Théatre complet - Tome 2,Racine,1699,352,FR,0,0,Bourg-en-Bresse,None
156,None,FRT0,Théatre complet - Tome 3,Racine,1699,347,FR,0,0,Bourg-en-Bresse,None
157,2-253-13788,FBR0,Feux d'artifice,Agatha Christie,1936,92,FR,0,0,Bourg-en-Bresse,None
158,None,FBR0,L'adieu aux armes,Ernest Hemingway,1929,288,FR,0,0,Bourg-en-Bresse,None
159,None,FBP0,Les poètes sous les verrous,Col,1971,110,FR,0,0,Bourg-en-Bresse,None
160,2-277-13379-5,FBR0,C'est Mozart qu'on assassine,Gilbert Cesbron,1966,307,FR,0,0,Bourg-en-Bresse,None
161,2-277-22866-4,FBR0,L'année de l'éveil,Charles Juliet,1989,250,FR,0,0,Bourg-en-Bresse,None
162,978-2-211-04199-7,FBR0,Les misérables (abrégés),Victor Hugo,1862,318,FR,0,0,Bourg-en-Bresse,None
163,9-782038-700,FBN0,Contes et nouvelles - Tome 2,Guy De Maupassant,1893,159,FR,0,0,Bourg-en-Bresse,None
164,9-782211-036535,FBR0,Le livre de Catherine,Karen Cushman,1994,205,FR,0,0,Bourg-en-Bresse,None
165,9-782266-065757,FBR0,Les noces de Guernica,Dan Franck|Jean Vautrin,1994,654,FR,0,0,Bourg-en-Bresse,None
166,2-266-04613-6,FBR0,Le temps des cerises,Dan Franck|Jean Vautrin,1991,634,FR,0,0,Bourg-en-Bresse,None
167,9-782253-004394,DBE430,L'allemand en 90 leçons et en 90 jours,Alphonse Jenny,1970,445,FR,0,0,Bourg-en-Bresse,None
168,978-2-85495-646-7,DRH750,Peindre le ciel,Col,2016,71,FR,0,0,Bourg-en-Bresse,None
169,2-914475-47-0,DBJ940,Me guerre d'Algérie,Bernard Gerland,2003,143,FR,0,0,Bourg-en-Bresse,None
170,978-2-7590-0813-1,DBE470,50 règles essentielles - Latin,Marjorie Champetier,2009,127,FR,0,0,Bourg-en-Bresse,None
171,None,FBT0,Théâtre complet - Tome 2,William Shakespeare,1616,1220,FR,0,0,Bourg-en-Bresse,None
172,None,FBT0,Théâtre complet - Tome 3,William Shakespeare,1616,1142,FR,0,0,Bourg-en-Bresse,None
173,978-91-85861-16-3,DRJ910,Sweden - inside out,Anita Shenoi,2009,124,GB,0,0,Bourg-en-Bresse,None
174,2-226-11457-2,DBJ930,Grèce antique,Col,2000,1427,FR,0,0,Bourg-en-Bresse,None
175,978-2-84773-052-4,DBF580,Carnet de randonnée,Marie-Agnès Perdrieau|Christine Achard,2007,87,FR,0,0,Bourg-en-Bresse,None
176,978-2-258-09706-3,FBR0,L'analphabète qui savait compter,Jonas Jonasson,2013,476,FR,0,0,Bourg-en-Bresse,None
177,2-7068-1467-4,DBE447,Comment tu tchatches ! - Édition 2001,Jean-Pierre Goudailler,2001,304,FR,0,0,Bourg-en-Bresse,None
178,978-2-915621-28-0,FBR0,NOOB : Saison 1.5 La pierre des âges,Fabien Fournier,2009,264,FR,0,0,Bourg-en-Bresse,None
179,978-8-2732-4538-59,DBJ940,ElleSonParis,Col,2012,123,FR,0,0,Bourg-en-Bresse,None
180,2-09211133-7,DBJ940,L'or et le boue,Christophe Lambert,2002,118,FR,0,0,Bourg-en-Bresse,None
181,978-2-88448-023-9,FBD0,Le guérisseur c'est toi,José Silva - Robert B. Stone,1992,286,FR,0,0,Bourg-en-Bresse,None
182,978-2-8246-0505-,DBG640,La cuisine facile des étudiants,Fanny Matagne,2014,215,FR,0,0,Bourg-en-Bresse,None
183,2-07-056438,FBR0,La nuit dans les yeux,Xavier Deutsch,1989,249,FR,0,0,Bourg-en-Bresse,None
184,978-2-7002-3772-6,FBF0,Ellana - La prophétie,Pierre Bottero,2008,635,FR,0,0,Bourg-en-Bresse,None
185,2-253-00685-8,FBR0,Le noël d'Hercule Poirot,Agatha Christie,1938,314,FR,0,0,Bourg-en-Bresse,None
186,None,FBR0,Contes à Ninon,Emile Zola,1859,249,FR,0,0,Bourg-en-Bresse,None
187,2-253-00910-5,FBD0,Comment se faire des amis,Dale Carnegie,1936,318,FR,0,0,Bourg-en-Bresse,None
188,2-02-005659-3,DBJ940,La France de la Quatrième République : 1. L'ardeur et la nécessité 1944 - 1952,Jean-Pierre Rioux,1980,309,FR,0,0,Bourg-en-Bresse,None
189,978-2-7578-1089-7,FBB0,Les rêves de mon père,Barack Obama,2008,572,FR,0,0,Bourg-en-Bresse,None
190,2-07-036424-0,FBC0,Trois contes,Gustave Flaubert,1877,189,FR,0,0,Bourg-en-Bresse,None
191,None,FBT0,Rhinocéros,Eugène Ionesco,1959,246,FR,0,0,Bourg-en-Bresse,None
192,2-218-05103-6,FBT0,Le Cid,Pierre Corneille,1637,127,FR,0,0,Bourg-en-Bresse,None
193,978-2-7540-4738-8,FBD0,Manipulation : 300 trucs et astuces pour obtenir tout ce que vous voulez,Gilles Azzopardi,2013,159,FR,0,0,Bourg-en-Bresse,None
194,2-02-006385-9,DBJ940,La France de la Quatrième République : 2. L'expansion et l'impuissance 1952-1958,Jean-Pierre Rioux,1983,382,FR,0,0,Bourg-en-Bresse,None
195,978-2-01-002759-8,DBJ910,Le Routard : Allemagne 2015,Col,2015,699,FR,0,0,Bourg-en-Bresse,None
196,978-2-263-06489-0,DBG640,Cuisine facile : 1001 recettes,Col,2014,407,FR,0,0,Bourg-en-Bresse,None
197,2-7024-2752-9,FBR0,Jeux de glaces,Agatha Christie,1952,217,FR,0,0,Bourg-en-Bresse,None
198,978-2-01-281408-0,DRE470,Gaffiot de poche TOP - Dictionnaire Latin-Français,Col,2001,820,FR,0,0,Bourg-en-Bresse,None
199,2-253-00677-7,FBC0,Contes de la bécasse,Guy De Maupassant,1883,189,FR,0,0,Bourg-en-Bresse,None
200,2-07-036417-8,FBR0,Silbermann,Jacques de Lacretelle,1922,124,FR,0,0,Bourg-en-Bresse,None
201,2-07-036331-7,FBR0,L'or,Blaise Cendrars,1925,169,FR,0,0,Bourg-en-Bresse,None
202,2-08-161728-5,FBR0,L'autre,Andrée Chedid,1969,270,FR,0,0,Bourg-en-Bresse,None
203,2-253-03119-4,FBR0,e=mc2 mon amour,Patrick Cauvin,1977,221,FR,0,0,Bourg-en-Bresse,None
204,None,FBR0,Colomba,Prosper Mérimée,1840,183,FR,0,0,Bourg-en-Bresse,None
205,2-7312-1709-,FBR0,Le Général Dourakine,Comtesse De Ségur,1863,347,FR,0,0,Bourg-en-Bresse,None
206,2-01-166699-6,FBR0,Le COlonel Chabert,Honoré De Balzac,1844,175,FR,0,0,Bourg-en-Bresse,None
207,978-2-0812-3029-3,FBA0,12 récits de l'Énéide,Michel Laporte,-19,211,FR,0,0,Bourg-en-Bresse,None
208,None,FBC0,Fables,Jean De La Fontaine,1694,567,FR,0,0,Bourg-en-Bresse,None
209,978-2-266-18491-5,FBR0,Les liaisons dangereuses,Choderlos De Laclos,1782,639,FR,0,0,Bourg-en-Bresse,None
210,2-266-02303-9,FBF0,La nuit des temps,René Barjavel,1968,381,FR,0,0,Bourg-en-Bresse,None
211,2-07-036238-8,FBF0,Ravage,René Barjavel,1943,313,FR,0,0,Bourg-en-Bresse,None
212,2-03-871333-2,FBR0,Lettres persanes,Montesquieu,1721,288,FR,0,0,Bourg-en-Bresse,None
213,None,FBR0,Notre-Dames de Paris,Victor Hugo,1831,509,FR,0,0,Bourg-en-Bresse,None
214,978-2-02-036699,DBJ940,Auschwitz expliqué à ma fille,Annette Wieviorka,1999,60,FR,0,0,Bourg-en-Bresse,None
215,978-2-7540-3580-4,DBE430,Le lexique allemand pour les nuls,Olga Dischinger,2012,286,FR,0,0,Bourg-en-Bresse,None
216,None,FBR0,La perle,John Steinbeck,1947,122,FR,0,0,Bourg-en-Bresse,None
217,978-2-253-07008-5,FBR0,Les mille talents d'Euridice Gusmao,Martha Batalha,2016,254,FR,0,0,Bourg-en-Bresse,None
218,2-01-166640-6,FBR0,L'ile au trésor,Robert Louis Stevenson,1911,351,FR,0,0,Bourg-en-Bresse,None
219,2-253-17012-7,FBR0,Douce nuit,Mary Higgins Clark,1995,186,FR,0,0,Bourg-en-Bresse,None
220,978-0-19-478915-8,FBR0,The Phantom of the Opera,Jennifer Bassett,1992,56,GB,0,0,Bourg-en-Bresse,None
221,978-2-7540-2243-9,DBE420,Le lexique anglais pour les nuls,Brigitte Lallement|Nathalie Pierret,2011,257,FR,0,0,Bourg-en-Bresse,None
222,2-07-036155-1,FBR0,La chartreuse de Parme,Stendhal,1841,592,FR,0,0,Bourg-en-Bresse,None
223,978-2-253-12762-8,FBB0,Une jeunesse au temps de la Shoah - Extrait d'Une vie,Simone Veil,2010,188,FR,0,0,Bourg-en-Bresse,None
224,2-87706-061-6,FBR0,La femme du boulanger,Marcel Pagnol,1938,186,FR,0,0,Bourg-en-Bresse,None
225,None,FBC0,Contes et nouvelles,Jean De La Fontaine,1665,439,FR,0,0,Bourg-en-Bresse,None
226,2-02-000657-,DBJ940,Introduction à l'histoire de notre temps - 1. L'Ancien Régime et la Révolution 1750-1815,René Rémond,1974,215,FR,0,0,Bourg-en-Bresse,None
227,2-02-000658-8,DBJ940,Introduction à l'histoire de notre temps - 2. Le XIXe siècle 1815-1914,René Rémond,1974,248,FR,0,0,Bourg-en-Bresse,None
228,978-2-253-14710-7,FBR0,La cinquième montagne,Paul Coelho,1996,191,FR,0,0,Bourg-en-Bresse,None
229,2-253-01493-1,FBR0,Carmen,Prosper Mérimée,1847,422,FR,0,0,Bourg-en-Bresse,None
230,2-7024-0508-8,FBF0,Psycataclysme,Phyllis Gotlieb,1964,251,FR,0,0,Bourg-en-Bresse,None
231,2-253-02933-5,FBR0,La clinique du docteur H.,Mary Higgins Clark,1980,383,FR,0,0,Bourg-en-Bresse,None
232,2-03-871325-1,FBR0,Essais,Montaigne,1572,320,FR,0,0,Bourg-en-Bresse,None
233,978-2-07-040883-2,FBR0,Cannibale,Didier Daeninckx,1998,108,FR,0,0,Bourg-en-Bresse,None
234,None,FBR0,Les conquérants,André Malraux,1928,315,FR,0,0,Bourg-en-Bresse,None
235,None,FBR0,L'espoir,André Malraux,1937,504,FR,0,0,Bourg-en-Bresse,None
236,2-253-03349-9,FBR0,J'avais deux camarades,Hans Peter Richter,1977,277,FR,0,0,Bourg-en-Bresse,None
237,None,FBR0,Le merveilleux voyage de Nils Holgerson à travers la Suède,Selma Lagerlöf,1907,409,FR,0,0,Bourg-en-Bresse,None
238,None,FBR0,La neige en deuil,Henri Troyat,1952,185,FR,0,0,Bourg-en-Bresse,None
239,2-253-02568-2,FBF0,La guerre du feu,J-H Rosny Aîné,1911,288,FR,0,0,Bourg-en-Bresse,None
240,2-207-30340-3,FBF0,Guide du routard galactique,Douglas Adams,1979,216,FR,0,0,Bourg-en-Bresse,None
